%YAML 1.1
%TAG !u! tag:unity3d.com,2011:
--- !u!1 &347223397595284582
GameObject:
  m_ObjectHideFlags: 0
  m_CorrespondingSourceObject: {fileID: 0}
  m_PrefabInstance: {fileID: 0}
  m_PrefabAsset: {fileID: 0}
  serializedVersion: 6
  m_Component:
  - component: {fileID: 5541087012445915741}
  - component: {fileID: 3362443365081317867}
  - component: {fileID: 2507129943070517965}
  m_Layer: 0
  m_Name: Grass1
  m_TagString: Untagged
  m_Icon: {fileID: 0}
  m_NavMeshLayer: 0
  m_StaticEditorFlags: 0
  m_IsActive: 1
--- !u!4 &5541087012445915741
Transform:
  m_ObjectHideFlags: 0
  m_CorrespondingSourceObject: {fileID: 0}
  m_PrefabInstance: {fileID: 0}
  m_PrefabAsset: {fileID: 0}
  m_GameObject: {fileID: 347223397595284582}
  m_LocalRotation: {x: 0, y: 0, z: 0, w: 1}
  m_LocalPosition: {x: 4.79, y: 0.96726, z: 7.571}
  m_LocalScale: {x: 1, y: 1, z: 1}
  m_Children:
  - {fileID: 6770815687409182001}
  m_Father: {fileID: 0}
  m_RootOrder: 0
  m_LocalEulerAnglesHint: {x: 0, y: 0, z: 0}
--- !u!114 &3362443365081317867
MonoBehaviour:
  m_ObjectHideFlags: 0
  m_CorrespondingSourceObject: {fileID: 0}
  m_PrefabInstance: {fileID: 0}
  m_PrefabAsset: {fileID: 0}
  m_GameObject: {fileID: 347223397595284582}
  m_Enabled: 1
  m_EditorHideFlags: 0
  m_Script: {fileID: 11500000, guid: 998f2e6a03a195a4cbb20e833572c137, type: 3}
  m_Name: 
  m_EditorClassIdentifier: 
  _objectToAnimate: {fileID: 0}
--- !u!65 &2507129943070517965
BoxCollider:
  m_ObjectHideFlags: 0
  m_CorrespondingSourceObject: {fileID: 0}
  m_PrefabInstance: {fileID: 0}
  m_PrefabAsset: {fileID: 0}
  m_GameObject: {fileID: 347223397595284582}
  m_Material: {fileID: 0}
  m_IsTrigger: 1
  m_Enabled: 1
  serializedVersion: 2
  m_Size: {x: 0.66730976, y: 5, z: 0.06480491}
  m_Center: {x: 0, y: 2.5, z: 0}
--- !u!1001 &6770815687409319857
PrefabInstance:
  m_ObjectHideFlags: 0
  serializedVersion: 2
  m_Modification:
    m_TransformParent: {fileID: 5541087012445915741}
    m_Modifications:
    - target: {fileID: 100000, guid: 435b5ac3346db8e4c818b63249b76436, type: 3}
      propertyPath: m_Name
      value: grass1
      objectReference: {fileID: 0}
    - target: {fileID: 400000, guid: 435b5ac3346db8e4c818b63249b76436, type: 3}
      propertyPath: m_LocalPosition.x
      value: 0
      objectReference: {fileID: 0}
    - target: {fileID: 400000, guid: 435b5ac3346db8e4c818b63249b76436, type: 3}
      propertyPath: m_LocalPosition.y
      value: 0.16568
      objectReference: {fileID: 0}
    - target: {fileID: 400000, guid: 435b5ac3346db8e4c818b63249b76436, type: 3}
      propertyPath: m_LocalPosition.z
      value: 0
      objectReference: {fileID: 0}
    - target: {fileID: 400000, guid: 435b5ac3346db8e4c818b63249b76436, type: 3}
      propertyPath: m_LocalRotation.x
      value: -0
      objectReference: {fileID: 0}
    - target: {fileID: 400000, guid: 435b5ac3346db8e4c818b63249b76436, type: 3}
      propertyPath: m_LocalRotation.y
      value: -0
      objectReference: {fileID: 0}
    - target: {fileID: 400000, guid: 435b5ac3346db8e4c818b63249b76436, type: 3}
      propertyPath: m_LocalRotation.z
      value: -0
      objectReference: {fileID: 0}
    - target: {fileID: 400000, guid: 435b5ac3346db8e4c818b63249b76436, type: 3}
      propertyPath: m_LocalRotation.w
      value: 1
      objectReference: {fileID: 0}
    - target: {fileID: 400000, guid: 435b5ac3346db8e4c818b63249b76436, type: 3}
      propertyPath: m_RootOrder
      value: 0
      objectReference: {fileID: 0}
    - target: {fileID: 400000, guid: 435b5ac3346db8e4c818b63249b76436, type: 3}
      propertyPath: m_LocalEulerAnglesHint.x
      value: 0
      objectReference: {fileID: 0}
    - target: {fileID: 400000, guid: 435b5ac3346db8e4c818b63249b76436, type: 3}
      propertyPath: m_LocalEulerAnglesHint.y
      value: 0
      objectReference: {fileID: 0}
    - target: {fileID: 400000, guid: 435b5ac3346db8e4c818b63249b76436, type: 3}
      propertyPath: m_LocalEulerAnglesHint.z
      value: 0
      objectReference: {fileID: 0}
    m_RemovedComponents: []
  m_SourcePrefab: {fileID: 100100000, guid: 435b5ac3346db8e4c818b63249b76436, type: 3}
--- !u!4 &6770815687409182001 stripped
Transform:
  m_CorrespondingSourceObject: {fileID: 400000, guid: 435b5ac3346db8e4c818b63249b76436,
    type: 3}
  m_PrefabInstance: {fileID: 6770815687409319857}
  m_PrefabAsset: {fileID: 0}
