%YAML 1.1
%TAG !u! tag:unity3d.com,2011:
--- !u!1 &2024383911426417211
GameObject:
  m_ObjectHideFlags: 0
  m_CorrespondingSourceObject: {fileID: 0}
  m_PrefabInstance: {fileID: 0}
  m_PrefabAsset: {fileID: 0}
  serializedVersion: 6
  m_Component:
  - component: {fileID: 5966506509364407852}
  - component: {fileID: 3210888190204474844}
  m_Layer: 9
  m_Name: Tree1
  m_TagString: Untagged
  m_Icon: {fileID: 0}
  m_NavMeshLayer: 0
  m_StaticEditorFlags: 0
  m_IsActive: 1
--- !u!4 &5966506509364407852
Transform:
  m_ObjectHideFlags: 0
  m_CorrespondingSourceObject: {fileID: 0}
  m_PrefabInstance: {fileID: 0}
  m_PrefabAsset: {fileID: 0}
  m_GameObject: {fileID: 2024383911426417211}
  m_LocalRotation: {x: 0, y: 0, z: 0, w: 1}
  m_LocalPosition: {x: -2.217, y: 0.96726, z: 5.096}
  m_LocalScale: {x: 1, y: 1, z: 1}
  m_Children:
  - {fileID: 2399675043423396690}
  m_Father: {fileID: 0}
  m_RootOrder: 0
  m_LocalEulerAnglesHint: {x: 0, y: 0, z: 0}
--- !u!136 &3210888190204474844
CapsuleCollider:
  m_ObjectHideFlags: 0
  m_CorrespondingSourceObject: {fileID: 0}
  m_PrefabInstance: {fileID: 0}
  m_PrefabAsset: {fileID: 0}
  m_GameObject: {fileID: 2024383911426417211}
  m_Material: {fileID: 0}
  m_IsTrigger: 0
  m_Enabled: 1
  m_Radius: 0.5
  m_Height: 3.4061031
  m_Direction: 1
  m_Center: {x: 0, y: 1.2030516, z: 0}
--- !u!64 &4505801109687484942
MeshCollider:
  m_ObjectHideFlags: 0
  m_CorrespondingSourceObject: {fileID: 0}
  m_PrefabInstance: {fileID: 0}
  m_PrefabAsset: {fileID: 0}
  m_GameObject: {fileID: 2399675043422977906}
  m_Material: {fileID: 0}
  m_IsTrigger: 0
  m_Enabled: 1
  serializedVersion: 3
  m_Convex: 0
  m_CookingOptions: 14
  m_Mesh: {fileID: 4300000, guid: cc6c55c816679f948b8ad79e0982a29b, type: 3}
--- !u!1001 &2399675043423009234
PrefabInstance:
  m_ObjectHideFlags: 0
  serializedVersion: 2
  m_Modification:
    m_TransformParent: {fileID: 5966506509364407852}
    m_Modifications:
    - target: {fileID: 100000, guid: cc6c55c816679f948b8ad79e0982a29b, type: 3}
      propertyPath: m_Name
      value: tree01
      objectReference: {fileID: 0}
    - target: {fileID: 100000, guid: cc6c55c816679f948b8ad79e0982a29b, type: 3}
      propertyPath: m_Layer
      value: 9
      objectReference: {fileID: 0}
    - target: {fileID: 400000, guid: cc6c55c816679f948b8ad79e0982a29b, type: 3}
      propertyPath: m_LocalPosition.x
      value: -0.22162998
      objectReference: {fileID: 0}
    - target: {fileID: 400000, guid: cc6c55c816679f948b8ad79e0982a29b, type: 3}
      propertyPath: m_LocalPosition.y
      value: 2.43404
      objectReference: {fileID: 0}
    - target: {fileID: 400000, guid: cc6c55c816679f948b8ad79e0982a29b, type: 3}
      propertyPath: m_LocalPosition.z
      value: 0.12400007
      objectReference: {fileID: 0}
    - target: {fileID: 400000, guid: cc6c55c816679f948b8ad79e0982a29b, type: 3}
      propertyPath: m_LocalRotation.x
      value: -0
      objectReference: {fileID: 0}
    - target: {fileID: 400000, guid: cc6c55c816679f948b8ad79e0982a29b, type: 3}
      propertyPath: m_LocalRotation.y
      value: -0
      objectReference: {fileID: 0}
    - target: {fileID: 400000, guid: cc6c55c816679f948b8ad79e0982a29b, type: 3}
      propertyPath: m_LocalRotation.z
      value: -0
      objectReference: {fileID: 0}
    - target: {fileID: 400000, guid: cc6c55c816679f948b8ad79e0982a29b, type: 3}
      propertyPath: m_LocalRotation.w
      value: 1
      objectReference: {fileID: 0}
    - target: {fileID: 400000, guid: cc6c55c816679f948b8ad79e0982a29b, type: 3}
      propertyPath: m_RootOrder
      value: 0
      objectReference: {fileID: 0}
    - target: {fileID: 400000, guid: cc6c55c816679f948b8ad79e0982a29b, type: 3}
      propertyPath: m_LocalEulerAnglesHint.x
      value: 0
      objectReference: {fileID: 0}
    - target: {fileID: 400000, guid: cc6c55c816679f948b8ad79e0982a29b, type: 3}
      propertyPath: m_LocalEulerAnglesHint.y
      value: 0
      objectReference: {fileID: 0}
    - target: {fileID: 400000, guid: cc6c55c816679f948b8ad79e0982a29b, type: 3}
      propertyPath: m_LocalEulerAnglesHint.z
      value: 0
      objectReference: {fileID: 0}
    m_RemovedComponents: []
  m_SourcePrefab: {fileID: 100100000, guid: cc6c55c816679f948b8ad79e0982a29b, type: 3}
--- !u!1 &2399675043422977906 stripped
GameObject:
  m_CorrespondingSourceObject: {fileID: 100000, guid: cc6c55c816679f948b8ad79e0982a29b,
    type: 3}
  m_PrefabInstance: {fileID: 2399675043423009234}
  m_PrefabAsset: {fileID: 0}
--- !u!4 &2399675043423396690 stripped
Transform:
  m_CorrespondingSourceObject: {fileID: 400000, guid: cc6c55c816679f948b8ad79e0982a29b,
    type: 3}
  m_PrefabInstance: {fileID: 2399675043423009234}
  m_PrefabAsset: {fileID: 0}
