%YAML 1.1
%TAG !u! tag:unity3d.com,2011:
--- !u!221 &22100000
AnimatorOverrideController:
  m_ObjectHideFlags: 0
  m_CorrespondingSourceObject: {fileID: 0}
  m_PrefabInstance: {fileID: 0}
  m_PrefabAsset: {fileID: 0}
  m_Name: BullAnimator
  m_Controller: {fileID: 9100000, guid: fff0555aad7b01c40a5f3cbe951ac7b4, type: 2}
  m_Clips:
  - m_OriginalClip: {fileID: 7400000, guid: 2d98a757763df1e4eb5edce112888330, type: 2}
    m_OverrideClip: {fileID: 7400000, guid: 36de93965ed170847b032865a0aa1ca6, type: 2}
