%YAML 1.1
%TAG !u! tag:unity3d.com,2011:
--- !u!1 &9092935420931548788
GameObject:
  m_ObjectHideFlags: 0
  m_CorrespondingSourceObject: {fileID: 0}
  m_PrefabInstance: {fileID: 0}
  m_PrefabAsset: {fileID: 0}
  serializedVersion: 6
  m_Component:
  - component: {fileID: 9092935420931548789}
  - component: {fileID: 1131207639325580715}
  m_Layer: 11
  m_Name: VenomousMushroom
  m_TagString: Untagged
  m_Icon: {fileID: 0}
  m_NavMeshLayer: 0
  m_StaticEditorFlags: 0
  m_IsActive: 1
--- !u!4 &9092935420931548789
Transform:
  m_ObjectHideFlags: 0
  m_CorrespondingSourceObject: {fileID: 0}
  m_PrefabInstance: {fileID: 0}
  m_PrefabAsset: {fileID: 0}
  m_GameObject: {fileID: 9092935420931548788}
  m_LocalRotation: {x: 0, y: 0, z: 0, w: 1}
  m_LocalPosition: {x: 5.15, y: 0.96726, z: 9.933}
  m_LocalScale: {x: 1, y: 1, z: 1}
  m_Children:
  - {fileID: 9092935419870506946}
  m_Father: {fileID: 0}
  m_RootOrder: 0
  m_LocalEulerAnglesHint: {x: 0, y: 0, z: 0}
--- !u!136 &1131207639325580715
CapsuleCollider:
  m_ObjectHideFlags: 0
  m_CorrespondingSourceObject: {fileID: 0}
  m_PrefabInstance: {fileID: 0}
  m_PrefabAsset: {fileID: 0}
  m_GameObject: {fileID: 9092935420931548788}
  m_Material: {fileID: 0}
  m_IsTrigger: 0
  m_Enabled: 1
  m_Radius: 0.77
  m_Height: 2.2765331
  m_Direction: 1
  m_Center: {x: 0, y: 0.63826656, z: 0}
--- !u!1001 &9092935419870639426
PrefabInstance:
  m_ObjectHideFlags: 0
  serializedVersion: 2
  m_Modification:
    m_TransformParent: {fileID: 9092935420931548789}
    m_Modifications:
    - target: {fileID: 100000, guid: 844e10c1bc776cd4f8b1212e7cc5e3f9, type: 3}
      propertyPath: m_Name
      value: cogumelovenomous
      objectReference: {fileID: 0}
    - target: {fileID: 100000, guid: 844e10c1bc776cd4f8b1212e7cc5e3f9, type: 3}
      propertyPath: m_Layer
      value: 11
      objectReference: {fileID: 0}
    - target: {fileID: 400000, guid: 844e10c1bc776cd4f8b1212e7cc5e3f9, type: 3}
      propertyPath: m_LocalPosition.x
      value: 0
      objectReference: {fileID: 0}
    - target: {fileID: 400000, guid: 844e10c1bc776cd4f8b1212e7cc5e3f9, type: 3}
      propertyPath: m_LocalPosition.y
      value: 0.888
      objectReference: {fileID: 0}
    - target: {fileID: 400000, guid: 844e10c1bc776cd4f8b1212e7cc5e3f9, type: 3}
      propertyPath: m_LocalPosition.z
      value: 0
      objectReference: {fileID: 0}
    - target: {fileID: 400000, guid: 844e10c1bc776cd4f8b1212e7cc5e3f9, type: 3}
      propertyPath: m_LocalRotation.x
      value: -0
      objectReference: {fileID: 0}
    - target: {fileID: 400000, guid: 844e10c1bc776cd4f8b1212e7cc5e3f9, type: 3}
      propertyPath: m_LocalRotation.y
      value: -0
      objectReference: {fileID: 0}
    - target: {fileID: 400000, guid: 844e10c1bc776cd4f8b1212e7cc5e3f9, type: 3}
      propertyPath: m_LocalRotation.z
      value: -0
      objectReference: {fileID: 0}
    - target: {fileID: 400000, guid: 844e10c1bc776cd4f8b1212e7cc5e3f9, type: 3}
      propertyPath: m_LocalRotation.w
      value: 1
      objectReference: {fileID: 0}
    - target: {fileID: 400000, guid: 844e10c1bc776cd4f8b1212e7cc5e3f9, type: 3}
      propertyPath: m_RootOrder
      value: 0
      objectReference: {fileID: 0}
    - target: {fileID: 400000, guid: 844e10c1bc776cd4f8b1212e7cc5e3f9, type: 3}
      propertyPath: m_LocalEulerAnglesHint.x
      value: 0
      objectReference: {fileID: 0}
    - target: {fileID: 400000, guid: 844e10c1bc776cd4f8b1212e7cc5e3f9, type: 3}
      propertyPath: m_LocalEulerAnglesHint.y
      value: 0
      objectReference: {fileID: 0}
    - target: {fileID: 400000, guid: 844e10c1bc776cd4f8b1212e7cc5e3f9, type: 3}
      propertyPath: m_LocalEulerAnglesHint.z
      value: 0
      objectReference: {fileID: 0}
    m_RemovedComponents: []
  m_SourcePrefab: {fileID: 100100000, guid: 844e10c1bc776cd4f8b1212e7cc5e3f9, type: 3}
--- !u!4 &9092935419870506946 stripped
Transform:
  m_CorrespondingSourceObject: {fileID: 400000, guid: 844e10c1bc776cd4f8b1212e7cc5e3f9,
    type: 3}
  m_PrefabInstance: {fileID: 9092935419870639426}
  m_PrefabAsset: {fileID: 0}
